…
# Run model ----
o <- run_model(params, new_potential)

o
```

```
## # A tibble: 4,869 x 6
##      time type        group      treatment    condition   value
##     <dbl> <chr>       <chr>      <chr>        <chr>       <dbl>
##  1 0      no-mh-needs <NA>       <NA>         <NA>            0
##  2 0      at-risk     bereaved   <NA>         <NA>            0
##  3 0      at-risk     unemployed <NA>         <NA>            0
##  4 0      treatment   bereaved   cmht         bereavement     0
##  5 0      treatment   unemployed cmht         insomnia        0
##  6 0      treatment   unemployed cmht         stress          0
##  7 0      treatment   unemployed iapt         anxiety         0
##  8 0      treatment   unemployed iapt         depression      0
##  9 0      treatment   unemployed psych-liason suicide         0
## 10 0.0333 no-mh-needs <NA>       <NA>         <NA>            0
## # ... with 4,859 more rows
```
…
